Soubor obsahuje 800 čísel.
Čísla jsou: [[41, 42, 84, 27, 39, 56, 44, 4, 57, 54, 19, 89, 67, 64, 45, 4, 68, 47, 60, 81], [76, 88, 44, 38, 45, 52, 9, 70, 57, 26, 41, 89, 40, 66, 93, 9, 41, 19, 77, 85], [35, 20, 82, 88, 28, 13, 97, 46, 86, 31, 36, 0, 37, 69, 56, 3, 59, 92, 50, 16], [54, 17, 1, 25, 91, 19, 9, 61, 80, 22, 16, 29, 85, 8, 46, 76, 19, 88, 18, 38], [49, 29, 24, 11, 0, 35, 85, 63, 28, 82, 77, 26, 97, 79, 93, 56, 76, 41, 43, 23], [60, 100, 41, 85, 30, 40, 7, 37, 91, 90, 48, 77, 58, 69, 93, 21, 54, 25, 10, 27], [23, 18, 55, 72, 16, 89, 22, 94, 66, 58, 94, 75, 97, 36, 41, 65, 97, 61, 86, 60], [84, 63, 40, 85, 1, 62, 5, 10, 84, 4, 20, 81, 15, 45, 15, 34, 50, 33, 71, 21], [88, 97, 98, 32, 92, 55, 95, 8, 79, 38, 78, 93, 15, 16, 48, 53, 81, 71, 96, 70], [19, 99, 87, 86, 57, 35, 86, 5, 83, 10, 44, 69, 59, 75, 77, 75, 39, 43, 77, 14], [22, 42, 67, 29, 66, 28, 55, 84, 58, 73, 39, 71, 12, 43, 82, 63, 38, 59, 46, 25], [79, 56, 14, 63, 67, 100, 39, 4, 76, 6, 56, 87, 49, 8, 37, 35, 13, 29, 5, 14], [26, 83, 94, 70, 4, 16, 20, 26, 15, 44, 73, 53, 97, 61, 55, 5, 59, 44, 68, 37], [45, 86, 3, 5, 58, 18, 4, 52, 11, 10, 31, 28, 91, 13, 98, 75, 98, 31, 69, 73], [64, 98, 37, 88, 14, 63, 76, 12, 66, 5, 22, 27, 6, 81, 13, 83, 10, 9, 43, 95], [3, 30, 61, 44, 22, 59, 27, 73, 46, 32, 30, 97, 32, 59, 71, 99, 58, 73, 35, 50], [64, 94, 46, 60, 57, 66, 38, 84, 100, 33, 92, 19, 43, 72, 80, 72, 86, 44, 9, 52], [18, 86, 40, 68, 6, 43, 63, 30, 80, 48, 97, 96, 99, 70, 77, 75, 15, 0, 65, 83], [12, 18, 24, 9, 17, 50, 63, 88, 81, 32, 49, 89, 0, 25, 47, 58, 99, 20, 33, 65], [20, 88, 47, 86, 18, 21, 35, 5, 64, 44, 67, 85, 86, 5, 78, 70, 50, 99, 54, 87], [90, 41, 53, 18, 26, 27, 50, 73, 17, 52, 76, 25, 70, 74, 44, 83, 8, 92, 39, 77], [12, 39, 68, 11, 29, 27, 3, 37, 48, 91, 11, 19, 77, 82, 72, 32, 33, 35, 69, 53], [78, 67, 94, 18, 71, 19, 54, 65, 34, 66, 94, 97, 57, 39, 73, 65, 42, 45, 8, 87], [45, 11, 77, 71, 47, 42, 9, 6, 90, 75, 63, 47, 72, 40, 19, 66, 66, 64, 60, 27], [97, 71, 77, 1, 94, 97, 5, 6, 73, 32, 93, 92, 37, 73, 20, 8, 54, 30, 50, 6], [33, 5, 14, 95, 12, 75, 54, 60, 60, 9, 72, 47, 26, 16, 42, 32, 29, 27, 38, 20], [85, 3, 44, 82, 63, 83, 18, 58, 60, 10, 68, 100, 92, 20, 23, 72, 58, 91, 41, 51], [45, 51, 80, 56, 67, 41, 42, 64, 26, 68, 3, 30, 70, 3, 42, 74, 29, 22, 76, 95], [8, 87, 65, 88, 51, 62, 81, 35, 30, 4, 89, 67, 77, 57, 95, 87, 17, 86, 80, 97], [97, 63, 74, 54, 45, 19, 57, 10, 28, 63, 85, 13, 98, 56, 79, 89, 29, 15, 5, 18], [5, 99, 54, 14, 50, 52, 15, 24, 63, 10, 26, 87, 89, 96, 55, 51, 45, 45, 44, 85], [54, 3, 58, 5, 77, 39, 76, 21, 75, 64, 90, 67, 11, 23, 79, 25, 58, 31, 43, 78], [78, 39, 47, 88, 71, 69, 79, 68, 90, 71, 66, 98, 66, 7, 93, 52, 100, 12, 77, 36], [19, 29, 40, 42, 17, 63, 17, 40, 22, 18, 24, 39, 99, 2, 3, 79, 22, 25, 14, 82], [41, 63, 91, 15, 20, 28, 95, 92, 78, 11, 91, 53, 33, 87, 52, 51, 68, 27, 68, 50], [70, 4, 27, 71, 65, 68, 81, 82, 61, 13, 49, 76, 64, 51, 51, 0, 25, 45, 62, 16], [35, 47, 95, 86, 87, 34, 81, 3, 86, 47, 3, 39, 8, 5, 36, 47, 30, 81, 48, 43], [10, 75, 88, 26, 63, 94, 2, 42, 97, 13, 34, 69, 18, 74, 36, 5, 1, 76, 75, 21], [64, 42, 27, 15, 4, 94, 41, 25, 41, 77, 25, 24, 48, 44, 68, 61, 1, 75, 80, 100], [34, 19, 2, 50, 88, 24, 52, 32, 75, 51, 94, 60, 64, 62, 32, 65, 30, 43, 49, 51]]
Součty sloupců jsou: [1882, 2112, 2164, 1977, 1775, 1977, 1791, 1699, 2462, 1587, 2185, 2429, 2261, 1875, 2259, 2075, 1855, 1895, 2041, 2109]
